<?xml version="1.0" encoding="UTF-8" standalone="no"?>
<svg
   xmlns:dc="http://purl.org/dc/elements/1.1/"
   xmlns:cc="http://creativecommons.org/ns#"
   xmlns:rdf="http://www.w3.org/1999/02/22-rdf-syntax-ns#"
   xmlns:svg="http://www.w3.org/2000/svg"
   xmlns="http://www.w3.org/2000/svg"
   height="72"
   width="72"
   xml:space="preserve"
   viewBox="0 0 71.999997 71.999997"
   y="0px"
   x="0px"
   id="Capa_1"
   version="1.1"><metadata
   id="metadata41"><rdf:RDF><cc:Work
       rdf:about=""><dc:format>image/svg+xml</dc:format><dc:type
         rdf:resource="http://purl.org/dc/dcmitype/StillImage" /><dc:title></dc:title></cc:Work></rdf:RDF></metadata><defs
   id="defs39" />
<g
   transform="matrix(1.5622627,0,0,1.5622627,-0.30519225,-1.0549e-6)"
   id="g4">
	<path
   id="path2"
   d="m 44.6,7.162 h -3.379 v 11.625 h 1.351 v 5.338 H 40.004 V 6.487 C 40.005,2.904 37.1,0 33.517,0 H 12.162 C 8.58,0 5.675,2.904 5.675,6.487 v 17.3 H 3.445 V 18.109 H 4.864 V 6.487 H 1.486 v 11.622 h 1.419 v 6.22 h 2.77 v 12.705 c 0,2.454 1.366,4.593 3.379,5.694 v 3.358 H 14.73 V 43.52 h 16.083 v 2.567 h 5.678 v -3.294 c 2.086,-1.076 3.513,-3.251 3.513,-5.76 V 24.664 h 3.109 V 18.786 H 44.6 Z M 15.407,1.35 H 30.543 V 4.866 H 15.407 Z m 1.621,35.412 H 8.649 V 32.98 h 8.379 z m 20.273,0 H 28.922 V 32.98 h 8.379 z m 0,-12.164 c 0,0 -1.622,5.137 -14.596,5.137 -12.976,0 -14.328,-5.137 -14.328,-5.137 V 6.756 h 28.924 z"
   style="fill:#4ad00a;fill-opacity:1" />
</g>
<g
   transform="translate(0,25.912996)"
   id="g6">
</g>
<g
   transform="translate(0,25.912996)"
   id="g8">
</g>
<g
   transform="translate(0,25.912996)"
   id="g10">
</g>
<g
   transform="translate(0,25.912996)"
   id="g12">
</g>
<g
   transform="translate(0,25.912996)"
   id="g14">
</g>
<g
   transform="translate(0,25.912996)"
   id="g16">
</g>
<g
   transform="translate(0,25.912996)"
   id="g18">
</g>
<g
   transform="translate(0,25.912996)"
   id="g20">
</g>
<g
   transform="translate(0,25.912996)"
   id="g22">
</g>
<g
   transform="translate(0,25.912996)"
   id="g24">
</g>
<g
   transform="translate(0,25.912996)"
   id="g26">
</g>
<g
   transform="translate(0,25.912996)"
   id="g28">
</g>
<g
   transform="translate(0,25.912996)"
   id="g30">
</g>
<g
   transform="translate(0,25.912996)"
   id="g32">
</g>
<g
   transform="translate(0,25.912996)"
   id="g34">
</g>
</svg>