<?xml version="1.0" encoding="UTF-8" standalone="no"?>
<svg
   xmlns:dc="http://purl.org/dc/elements/1.1/"
   xmlns:cc="http://creativecommons.org/ns#"
   xmlns:rdf="http://www.w3.org/1999/02/22-rdf-syntax-ns#"
   xmlns:svg="http://www.w3.org/2000/svg"
   xmlns="http://www.w3.org/2000/svg"
   height="72"
   version="1.1"
   viewBox="0 0 72 72"
   width="72"
   id="svg9">
  <metadata
     id="metadata13">
    <rdf:RDF>
      <cc:Work
         rdf:about="">
        <dc:format>image/svg+xml</dc:format>
        <dc:type
           rdf:resource="http://purl.org/dc/dcmitype/StillImage" />
        <dc:title></dc:title>
      </cc:Work>
    </rdf:RDF>
  </metadata>
  <defs
     id="defs4" />
  <g
     id="Page-1"
     style="fill:none;fill-rule:evenodd;stroke:none;stroke-width:1"
     transform="scale(1.44)">
    <g
       id="Mail"
       style="fill:#000000">
      <path
         style="fill:#4ad00a;fill-opacity:1"
         d="M 25,0 C 11.192881,0 0,11.192881 0,25 0,38.807119 11.192881,50 25,50 38.807119,50 50,38.807119 50,25 50,11.192881 38.807119,0 25,0 Z m 0,3 C 12.849735,3 3,12.849735 3,25 3,37.150265 12.849735,47 25,47 37.150265,47 47,37.150265 47,25 47,12.849735 37.150265,3 25,3 Z M 37,31.964674 V 17 l -8.737125,8.464291 z m -24,0 8.736937,-6.501293 L 13,17 Z M 22.914016,26.604743 13,33 H 37 L 27.08575,26.604743 25,28.625083 Z M 13.72,17 25,26.058131 36.28,17 Z m 0,0"
         id="Oval-1" />
    </g>
  </g>
</svg>
